<svg width="18" height="20" viewBox="0 0 18 20" fill="none" xmlns="http://www.w3.org/2000/svg">
<path fill-rule="evenodd" clip-rule="evenodd" d="M0 17C0 18.6569 1.34315 20 3 20H6V12.7573C6 11.1005 7.34315 9.75732 9 9.75732C10.6569 9.75732 12 11.1005 12 12.7573V20H15C16.6569 20 18 18.6569 18 17V7.75732C18 7.72343 17.9983 7.68993 17.995 7.6569H18C18 7.08093 17.7712 6.52856 17.3639 6.1213L11.1213 0.87868C9.94974 -0.292893 8.05025 -0.292893 6.87868 0.87868L0.636071 6.12128C0.228801 6.52855 0 7.08093 0 7.6569H0.00498009C0.00168633 7.68993 0 7.72343 0 7.75732V17Z" fill="white"/>
</svg>
